{
    "backend": {
        "api_endpoint_resource_stream": "/resource-stream",
        "api_tokens": {
                "moat": ""
        },
        "web_api": {
            "api_address": "127.0.0.1:7100"
        }
    },
    "distributors": {
            "moat": {
                    "resources": ["obfs4", "vanilla"],
                    "geoipdb":  "/usr/share/tor/geoip",
                    "geoip6db": "/usr/share/tor/geoip6",
                    "circumvention_map": "conf/circumvention.json",
                    "circumvention_defaults": "conf/circumvention_defaults.json",
                    "num_bridges_per_request": 2,
                    "rotation_period_hours": 24,
                    "num_periods": 30,
                    "builtin_bridges_url": "https://gitlab.torproject.org/tpo/applications/tor-browser-build/-/raw/main/projects/tor-expert-bundle/pt_config.json",
                    "dummy_bridges_file": "/srv/bridges.torproject.org/etc/moat_dummy_bridges",
		    "trust_proxy": true,
                    "web_api": {
                            "api_address": "127.0.0.1:7500",
                            "cert_file": "",
                            "key_file": ""
                    }
            }
    }
}
