{
    "backend": {
        "api_endpoint_resource_stream": "/resource-stream",
        "api_tokens": {
                "telegram": ""
        },
        "web_api": {
            "api_address": "127.0.0.1:7100"
        }
    },
    "distributors": {
        "telegram": {
            "resource": "obfs4",
            "num_bridges_per_request": 2,
            "rotation_period_hours": 24,
            "token": "",
            "min_user_id": 0,
            "updater_tokens": {},
            "storage_dir": "storage/telegram",
            "api_address": "127.0.0.1:7600",
            "lox_server_address": "https://lox.torproject.org"
        }
    }
}
